<?xml version="1.0" encoding="utf-8"?>
<!-- Generator: $$$/GeneralStr/196=Adobe Illustrator 27.6.0, SVG Export Plug-In . SVG Version: 6.00 Build 0)  -->
<svg version="1.1" id="Calque_1" xmlns="http://www.w3.org/2000/svg" xmlns:xlink="http://www.w3.org/1999/xlink" x="0px" y="0px"
	 viewBox="0 0 365 170" style="enable-background:new 0 0 365 170;" xml:space="preserve">
<style type="text/css">
	.st0{fill-rule:evenodd;clip-rule:evenodd;fill:#F17361;}
</style>
<path class="st0" d="M80.9,57.1c-5.3,0-9.6-4.3-9.6-9.6c0-5.3,4.3-9.6,9.6-9.6c5.3,0,9.6,4.3,9.6,9.6C90.5,52.8,86.2,57.1,80.9,57.1
	z M80.9,64.8c-9.6,0-17.3-7.7-17.3-17.3c0-9.6,7.7-17.3,17.3-17.3c9.6,0,17.3,7.7,17.3,17.3C98.2,57.1,90.5,64.8,80.9,64.8z"/>
<path class="st0" d="M81,144.3c-5.3,0-9.6-4.3-9.6-9.6c0-5.3,4.3-9.6,9.6-9.6c5.3,0,9.6,4.3,9.6,9.6C90.6,140,86.3,144.3,81,144.3z
	 M81,152c-9.6,0-17.3-7.7-17.3-17.3c0-9.6,7.7-17.3,17.3-17.3c9.6,0,17.3,7.7,17.3,17.3C98.3,144.3,90.6,152,81,152z"/>
<path class="st0" d="M37.4,81.5c-5,0-9.6-4.3-9.6-10.2c0-5.9,4.6-10.3,9.6-10.3c5,0,9.6,4.3,9.6,10.2C47,77.2,42.4,81.5,37.4,81.5z
	 M37.4,89.2c-9.6,0-17.3-8-17.3-17.9c0-9.9,7.7-18,17.3-18c9.6,0,17.3,8,17.3,17.9C54.7,81.2,46.9,89.2,37.4,89.2z"/>
<path class="st0" d="M88,121.2L88,61l-12.8,0l0.1,60.3L88,121.2z"/>
<path class="st0" d="M30.3,91.5c0.1,5.5,1.2,13.1,5.5,19.7c2.6,4,6.8,6.7,10.7,8.6c4,1.9,8.5,3.3,12.6,4.2c4.1,1,8.1,1.6,11.1,2.1
	c1,0.2,2,0.3,2.8,0.4c0.4,0.1,0.7,0.1,1,0.1c0.8,0.1,1.2,0.2,1.3,0.2c0.1,0,0.1,0,0.1,0l3.3-12.4c-0.8-0.2-2-0.4-2.8-0.5l0,0
	c-0.4-0.1-0.7-0.1-1.1-0.2c-0.8-0.1-1.6-0.2-2.6-0.4c-2.9-0.4-6.4-1-10.1-1.9c-3.6-0.9-7.2-2-10-3.3c-3-1.4-4.7-2.8-5.5-4
	c-2.5-3.8-3.3-8.6-3.4-12.9c0-2.1,0.1-3.9,0.2-5.2c0.1-0.6,0.2-1.1,0.2-1.5c0-0.2,0-0.3,0.1-0.3c0,0,0-0.1,0-0.1l0,0
	c0,0,0,0-6.3-1.3c-6.3-1.3-6.3-1.3-6.3-1.3l0,0l0,0l0,0l0,0.1c0,0,0,0.1,0,0.2c0,0.2-0.1,0.4-0.1,0.6c-0.1,0.5-0.2,1.2-0.3,2.1
	C30.5,86.2,30.3,88.7,30.3,91.5z"/>
<path d="M128.9,29.7l8.2,0l0,20l12.8,0l0,6.5l-21,0L128.9,29.7z M169.9,51.8l-9.3,0l-1.3,4.4l-8.4,0l9.9-26.5l8.9,0l10,26.5l-8.6,0
	L169.9,51.8z M168.2,46.1l-2.9-9.5l-2.9,9.5L168.2,46.1z M194.8,29.6l20.2,0l0,5.7l-12,0l0,4.6l10.3,0l0,5.3l-10.3,0l0,10.8l-8.2,0
	L194.8,29.6z M218.4,42.9c0-4.3,1.2-7.7,3.6-10.1c2.4-2.4,5.8-3.6,10.1-3.6c4.4,0,7.8,1.2,10.2,3.5c2.4,2.4,3.6,5.7,3.6,9.9
	c0,3.1-0.5,5.6-1.6,7.6c-1,2-2.5,3.5-4.5,4.6c-2,1.1-4.4,1.6-7.4,1.7c-3,0-5.5-0.5-7.4-1.4c-2-0.9-3.5-2.5-4.8-4.5
	C219,48.6,218.4,46,218.4,42.9z M226.6,42.9c0,2.7,0.5,4.6,1.5,5.8c1,1.2,2.4,1.8,4.1,1.7c1.8,0,3.1-0.6,4.1-1.7
	c1-1.1,1.4-3.2,1.4-6.2c0-2.5-0.5-4.3-1.5-5.5c-1-1.2-2.4-1.7-4.1-1.7c-1.6,0-3,0.6-4,1.8C227.1,38.3,226.6,40.2,226.6,42.9z
	 M250.3,56.1l0-26.5l13.6,0c2.5,0,4.5,0.2,5.8,0.6c1.3,0.4,2.4,1.2,3.2,2.4c0.8,1.2,1.2,2.6,1.2,4.3c0,1.5-0.3,2.7-0.9,3.8
	c-0.6,1.1-1.5,1.9-2.6,2.6c-0.7,0.4-1.7,0.8-2.9,1.1c1,0.3,1.7,0.6,2.1,1c0.3,0.2,0.7,0.7,1.3,1.4c0.6,0.7,1,1.3,1.2,1.6l4,7.7
	l-9.2,0l-4.4-8.1c-0.6-1-1.1-1.7-1.5-2c-0.6-0.4-1.3-0.6-2-0.6l-0.7,0l0,10.7L250.3,56.1z M258.6,40.3l3.5,0c0.4,0,1.1-0.1,2.2-0.4
	c0.5-0.1,1-0.4,1.3-0.8c0.3-0.4,0.5-1,0.5-1.5c0-0.9-0.3-1.5-0.8-2c-0.5-0.5-1.6-0.7-3.1-0.7l-3.6,0L258.6,40.3z M292.3,46.5l0-5.5
	l12.6,0l0,11.3c-2.4,1.7-4.6,2.8-6.4,3.4c-1.9,0.6-4.1,0.9-6.6,0.9c-3.1,0-5.7-0.5-7.7-1.6c-2-1.1-3.5-2.7-4.6-4.8
	c-1.1-2.1-1.6-4.6-1.6-7.3c0-2.9,0.6-5.4,1.8-7.5c1.2-2.1,2.9-3.8,5.2-4.9c1.8-0.9,4.2-1.3,7.2-1.3c2.9,0,5.1,0.3,6.6,0.8
	c1.5,0.5,2.7,1.4,3.6,2.5c1,1.1,1.7,2.5,2.2,4.2l-7.9,1.4c-0.3-1-0.9-1.8-1.7-2.3c-0.8-0.5-1.8-0.8-3-0.8c-1.8,0-3.2,0.6-4.3,1.9
	c-1.1,1.2-1.6,3.2-1.6,5.9c0,2.9,0.5,4.9,1.6,6.1c1.1,1.2,2.6,1.8,4.5,1.8c0.9,0,1.8-0.1,2.6-0.4c0.8-0.3,1.8-0.7,2.9-1.4l0-2.5
	L292.3,46.5z M309.8,29.5l21.9,0l0,5.7l-13.7,0l0,4.2l12.7,0l0,5.4l-12.7,0l0,5.2l14.1,0l0,6l-22.3,0L309.8,29.5z"/>
<path d="M131,85.2c-1,0-2-0.2-2.8-0.7c-0.8-0.5-1.5-1.2-2-2c-0.5-0.8-0.7-1.8-0.7-2.8c0-1.1,0.2-2,0.7-2.8c0.5-0.8,1.1-1.5,1.9-2
	c0.8-0.5,1.7-0.7,2.7-0.7c0.8,0,1.6,0.2,2.3,0.5c0.7,0.3,1.3,0.8,1.7,1.4l0-5.6c0-0.3,0.1-0.5,0.3-0.7c0.2-0.2,0.4-0.3,0.7-0.3
	c0.3,0,0.5,0.1,0.7,0.3c0.2,0.2,0.3,0.4,0.3,0.7l0,9.3c0,1-0.3,2-0.8,2.8c-0.5,0.8-1.1,1.5-2,2C133,85,132,85.2,131,85.2z M131,83.6
	c0.7,0,1.4-0.2,1.9-0.5c0.6-0.3,1-0.8,1.3-1.4c0.3-0.6,0.5-1.3,0.5-2c0-0.7-0.2-1.4-0.5-2c-0.3-0.6-0.8-1-1.3-1.4
	c-0.6-0.3-1.2-0.5-1.9-0.5c-0.7,0-1.3,0.2-1.9,0.5c-0.6,0.3-1,0.8-1.4,1.4c-0.3,0.6-0.5,1.3-0.5,2c0,0.7,0.2,1.4,0.5,2
	c0.3,0.6,0.8,1.1,1.4,1.4C129.7,83.4,130.3,83.6,131,83.6z M145.2,85.2c-1.1,0-2.1-0.2-2.9-0.7c-0.8-0.5-1.5-1.1-2-2
	c-0.5-0.8-0.7-1.8-0.7-2.9c0-1.1,0.2-2.1,0.7-2.9c0.5-0.8,1.1-1.5,1.9-2c0.8-0.5,1.7-0.7,2.8-0.7c1,0,1.9,0.2,2.7,0.7
	c0.7,0.5,1.3,1.1,1.7,1.9c0.4,0.8,0.6,1.7,0.6,2.8c0,0.2-0.1,0.4-0.2,0.6c-0.1,0.1-0.3,0.2-0.6,0.2l-8.2,0l0-1.5l8.2,0l-0.8,0.6
	c0-0.7-0.2-1.3-0.4-1.9c-0.3-0.6-0.6-1-1.1-1.3c-0.5-0.3-1.1-0.5-1.8-0.5c-0.8,0-1.4,0.2-2,0.5c-0.5,0.3-1,0.8-1.3,1.4
	c-0.3,0.6-0.4,1.3-0.4,2c0,0.8,0.2,1.4,0.5,2c0.3,0.6,0.8,1.1,1.4,1.4c0.6,0.3,1.3,0.5,2.1,0.5c0.4,0,0.9-0.1,1.3-0.2
	c0.5-0.2,0.8-0.3,1.1-0.6c0.2-0.1,0.4-0.2,0.6-0.2c0.2,0,0.4,0,0.6,0.2c0.2,0.2,0.3,0.4,0.3,0.6c0,0.2-0.1,0.4-0.3,0.6
	c-0.5,0.4-1,0.7-1.7,0.9C146.5,85.1,145.8,85.2,145.2,85.2z M156.4,85.2c-0.9,0-1.7-0.1-2.5-0.4c-0.8-0.3-1.4-0.7-1.9-1.1
	c-0.2-0.2-0.2-0.4-0.2-0.7c0-0.2,0.1-0.4,0.4-0.6c0.2-0.2,0.5-0.2,0.7-0.2c0.2,0,0.4,0.1,0.6,0.3c0.3,0.3,0.7,0.5,1.2,0.8
	c0.5,0.2,1.1,0.3,1.7,0.3c0.9,0,1.5-0.1,1.9-0.4c0.4-0.3,0.6-0.7,0.7-1.1c0-0.4-0.2-0.8-0.6-1.1c-0.4-0.3-1.1-0.5-2.2-0.7
	c-1.3-0.3-2.3-0.6-2.9-1.2s-0.9-1.2-0.9-1.9c0-0.7,0.2-1.2,0.6-1.7c0.4-0.5,0.9-0.8,1.5-1c0.6-0.2,1.3-0.3,2-0.3
	c0.9,0,1.7,0.1,2.3,0.4c0.7,0.3,1.2,0.7,1.6,1.2c0.2,0.2,0.2,0.4,0.2,0.6c0,0.2-0.1,0.4-0.3,0.5c-0.2,0.1-0.4,0.2-0.7,0.1
	c-0.3,0-0.5-0.2-0.6-0.3c-0.3-0.3-0.7-0.6-1.1-0.7c-0.4-0.1-0.9-0.2-1.4-0.2c-0.6,0-1.2,0.1-1.6,0.4c-0.4,0.2-0.6,0.6-0.6,1
	c0,0.3,0.1,0.5,0.2,0.7c0.1,0.2,0.4,0.4,0.8,0.6c0.4,0.2,0.9,0.3,1.7,0.4c1,0.2,1.8,0.4,2.4,0.7c0.6,0.3,1,0.7,1.3,1.1
	c0.3,0.4,0.4,0.9,0.4,1.4c0,0.6-0.2,1.2-0.5,1.7c-0.3,0.5-0.8,0.9-1.5,1.1S157.3,85.2,156.4,85.2z M176.4,85.3c-1.1,0-2.1-0.2-3-0.6
	c-0.9-0.4-1.8-1-2.5-1.7c-0.7-0.7-1.2-1.6-1.6-2.6c-0.4-1-0.6-2-0.6-3.1c0-1.1,0.2-2.1,0.6-3.1c0.4-1,1-1.8,1.7-2.6
	c0.7-0.7,1.5-1.3,2.5-1.7c0.9-0.4,1.9-0.6,3-0.6c1,0,1.9,0.1,2.6,0.4c0.8,0.3,1.5,0.7,2.3,1.3c0.1,0.1,0.2,0.2,0.2,0.3
	c0.1,0.1,0.1,0.2,0.1,0.3c0,0.1,0,0.2-0.1,0.3c0,0.2-0.1,0.4-0.3,0.5c-0.1,0.1-0.3,0.2-0.5,0.2c-0.2,0-0.4-0.1-0.6-0.2
	c-0.5-0.4-1-0.8-1.6-1c-0.6-0.2-1.3-0.3-2.1-0.3c-0.8,0-1.6,0.2-2.3,0.5c-0.7,0.3-1.3,0.8-1.9,1.4c-0.5,0.6-1,1.2-1.3,2
	c-0.3,0.8-0.5,1.6-0.5,2.4c0,0.9,0.2,1.7,0.5,2.5c0.3,0.7,0.7,1.4,1.3,2c0.5,0.6,1.2,1,1.9,1.3c0.7,0.3,1.5,0.5,2.3,0.5
	c0.7,0,1.4-0.1,2-0.3c0.6-0.2,1.2-0.6,1.8-1c0.2-0.2,0.4-0.2,0.6-0.2c0.2,0,0.4,0.1,0.5,0.3c0.1,0.1,0.2,0.4,0.2,0.6
	c0,0.1,0,0.2-0.1,0.4c0,0.1-0.1,0.2-0.2,0.3c-0.7,0.6-1.5,1-2.3,1.3C178.1,85.2,177.3,85.3,176.4,85.3z M188.8,85.2
	c-1.1,0-2-0.2-2.9-0.7c-0.8-0.5-1.5-1.1-2-2c-0.5-0.8-0.7-1.8-0.7-2.9c0-1.1,0.2-2.1,0.7-2.9c0.5-0.8,1.1-1.5,2-2
	c0.8-0.5,1.8-0.7,2.9-0.7c1.1,0,2,0.2,2.8,0.7c0.8,0.5,1.5,1.1,2,2c0.5,0.8,0.7,1.8,0.7,2.9c0,1.1-0.2,2-0.7,2.9
	c-0.5,0.8-1.1,1.5-2,2C190.8,85,189.9,85.2,188.8,85.2z M188.8,83.6c0.7,0,1.4-0.2,1.9-0.5c0.6-0.3,1-0.8,1.3-1.4
	c0.3-0.6,0.5-1.3,0.5-2c0-0.8-0.2-1.4-0.5-2c-0.3-0.6-0.8-1.1-1.3-1.4c-0.6-0.3-1.2-0.5-1.9-0.5c-0.7,0-1.4,0.2-1.9,0.5
	c-0.6,0.3-1,0.8-1.3,1.4c-0.3,0.6-0.5,1.3-0.5,2c0,0.8,0.2,1.4,0.5,2c0.3,0.6,0.8,1,1.3,1.4C187.4,83.4,188.1,83.6,188.8,83.6z
	 M211.9,85.1c-0.3,0-0.5-0.1-0.7-0.3c-0.2-0.2-0.3-0.4-0.3-0.7l0-5.7c0-0.9-0.2-1.6-0.7-2c-0.4-0.5-1-0.7-1.7-0.7
	c-0.7,0-1.4,0.3-1.8,0.8c-0.5,0.5-0.7,1.2-0.7,2l-1.6,0c0-0.9,0.2-1.7,0.6-2.3s0.9-1.2,1.6-1.6c0.7-0.4,1.4-0.6,2.3-0.6
	c0.8,0,1.5,0.2,2,0.5c0.6,0.3,1.1,0.9,1.4,1.5c0.3,0.7,0.5,1.4,0.5,2.4l0,5.7c0,0.3-0.1,0.5-0.3,0.7C212.4,85,212.2,85.1,211.9,85.1
	z M198.3,85.1c-0.3,0-0.5-0.1-0.7-0.3c-0.2-0.2-0.3-0.4-0.3-0.7l0-9.1c0-0.3,0.1-0.5,0.3-0.7c0.2-0.2,0.4-0.3,0.7-0.3
	c0.3,0,0.5,0.1,0.7,0.3c0.2,0.2,0.3,0.4,0.3,0.7l0,9.1c0,0.3-0.1,0.5-0.3,0.7C198.8,85,198.6,85.1,198.3,85.1z M205.1,85.1
	c-0.3,0-0.5-0.1-0.7-0.3c-0.2-0.2-0.3-0.4-0.3-0.7l0-5.7c0-0.9-0.2-1.6-0.7-2c-0.4-0.5-1-0.7-1.7-0.7c-0.7,0-1.4,0.3-1.9,0.8
	c-0.5,0.5-0.7,1.2-0.7,1.9l-1.2,0c0-0.9,0.2-1.6,0.5-2.3c0.4-0.7,0.8-1.2,1.5-1.6c0.6-0.4,1.3-0.6,2.1-0.6c0.8,0,1.5,0.2,2,0.5
	c0.6,0.3,1.1,0.9,1.4,1.5c0.3,0.7,0.5,1.4,0.5,2.4l0,5.7c0,0.3-0.1,0.5-0.3,0.7C205.6,85,205.4,85.1,205.1,85.1z M230.7,85.1
	c-0.3,0-0.5-0.1-0.7-0.3c-0.2-0.2-0.3-0.4-0.3-0.7l0-5.7c0-0.9-0.2-1.6-0.7-2c-0.4-0.5-1-0.7-1.7-0.7c-0.7,0-1.4,0.3-1.8,0.8
	c-0.5,0.5-0.7,1.2-0.7,2l-1.6,0c0-0.9,0.2-1.7,0.6-2.3s0.9-1.2,1.6-1.6c0.7-0.4,1.4-0.6,2.3-0.6c0.8,0,1.5,0.2,2,0.5
	c0.6,0.3,1.1,0.9,1.4,1.5c0.3,0.7,0.5,1.4,0.5,2.4l0,5.7c0,0.3-0.1,0.5-0.3,0.7C231.2,85,231,85.1,230.7,85.1z M217.1,85.1
	c-0.3,0-0.5-0.1-0.7-0.3c-0.2-0.2-0.3-0.4-0.3-0.7l0-9.1c0-0.3,0.1-0.5,0.3-0.7c0.2-0.2,0.4-0.3,0.7-0.3c0.3,0,0.5,0.1,0.7,0.3
	c0.2,0.2,0.3,0.4,0.3,0.7l0,9.1c0,0.3-0.1,0.5-0.3,0.7C217.6,85,217.4,85.1,217.1,85.1z M223.9,85.1c-0.3,0-0.5-0.1-0.7-0.3
	c-0.2-0.2-0.3-0.4-0.3-0.7l0-5.7c0-0.9-0.2-1.6-0.7-2c-0.4-0.5-1-0.7-1.7-0.7c-0.7,0-1.4,0.3-1.9,0.8c-0.5,0.5-0.7,1.2-0.7,1.9
	l-1.2,0c0-0.9,0.2-1.6,0.5-2.3c0.4-0.7,0.8-1.2,1.5-1.6c0.6-0.4,1.3-0.6,2.1-0.6c0.8,0,1.5,0.2,2,0.5c0.6,0.3,1.1,0.9,1.4,1.5
	c0.3,0.7,0.5,1.4,0.5,2.4l0,5.7c0,0.3-0.1,0.5-0.3,0.7C224.4,85,224.2,85.1,223.9,85.1z M239.7,85.2c-0.9,0-1.8-0.2-2.5-0.6
	c-0.7-0.4-1.3-1-1.7-1.7c-0.4-0.8-0.6-1.7-0.6-2.8l0-5c0-0.3,0.1-0.5,0.3-0.6c0.2-0.2,0.4-0.3,0.7-0.3c0.3,0,0.5,0.1,0.7,0.3
	c0.2,0.2,0.3,0.4,0.3,0.6l0,5c0,0.8,0.1,1.4,0.4,1.9c0.3,0.5,0.7,0.9,1.2,1.1c0.5,0.2,1.1,0.4,1.7,0.4c0.6,0,1.2-0.1,1.6-0.4
	c0.5-0.2,0.9-0.6,1.1-1c0.3-0.4,0.4-0.9,0.4-1.4l1.2,0c0,0.8-0.2,1.6-0.7,2.2c-0.4,0.7-1,1.2-1.7,1.6
	C241.4,85,240.6,85.2,239.7,85.2z M244.1,85.1c-0.3,0-0.5-0.1-0.7-0.3c-0.2-0.2-0.3-0.4-0.3-0.7l0-9.1c0-0.3,0.1-0.5,0.3-0.7
	c0.2-0.2,0.4-0.3,0.7-0.3c0.3,0,0.5,0.1,0.7,0.3c0.2,0.2,0.3,0.4,0.3,0.7l0,9.1c0,0.3-0.1,0.5-0.3,0.7S244.4,85.1,244.1,85.1z
	 M257.9,85.1c-0.3,0-0.5-0.1-0.7-0.3c-0.2-0.2-0.3-0.4-0.3-0.7l0-5c0-0.8-0.1-1.4-0.4-1.9c-0.3-0.5-0.7-0.9-1.2-1.1
	c-0.5-0.3-1.1-0.4-1.7-0.4c-0.6,0-1.1,0.1-1.6,0.4c-0.5,0.2-0.9,0.6-1.2,1c-0.3,0.4-0.4,0.9-0.4,1.4l-1.2,0c0-0.8,0.2-1.6,0.6-2.2
	c0.4-0.7,1-1.2,1.7-1.6c0.7-0.4,1.5-0.6,2.4-0.6c0.9,0,1.8,0.2,2.5,0.6c0.7,0.4,1.3,1,1.7,1.7c0.4,0.8,0.6,1.7,0.6,2.8l0,5
	c0,0.3-0.1,0.5-0.3,0.7C258.4,85,258.2,85.1,257.9,85.1z M249.5,85.1c-0.3,0-0.5-0.1-0.7-0.3c-0.2-0.2-0.3-0.4-0.3-0.7l0-9.1
	c0-0.3,0.1-0.5,0.3-0.7c0.2-0.2,0.4-0.3,0.7-0.3c0.3,0,0.5,0.1,0.7,0.3c0.2,0.2,0.3,0.4,0.3,0.7l0,9.1c0,0.3-0.1,0.5-0.3,0.7
	C250,85,249.8,85.1,249.5,85.1z M266.1,85.1c-0.9,0-1.7-0.1-2.5-0.4c-0.8-0.3-1.4-0.7-1.9-1.1c-0.2-0.2-0.2-0.4-0.2-0.7
	c0-0.2,0.1-0.4,0.4-0.6c0.2-0.2,0.5-0.2,0.7-0.2c0.2,0,0.4,0.1,0.6,0.3c0.3,0.3,0.7,0.5,1.2,0.8c0.5,0.2,1.1,0.3,1.7,0.3
	c0.9,0,1.5-0.1,1.9-0.4c0.4-0.3,0.6-0.7,0.7-1.1c0-0.4-0.2-0.8-0.6-1.1c-0.4-0.3-1.1-0.5-2.2-0.7c-1.3-0.3-2.3-0.6-2.9-1.2
	S262,77.8,262,77c0-0.7,0.2-1.2,0.6-1.7c0.4-0.5,0.9-0.8,1.5-1c0.6-0.2,1.3-0.3,2-0.3c0.9,0,1.7,0.1,2.3,0.4
	c0.7,0.3,1.2,0.7,1.6,1.2c0.2,0.2,0.2,0.4,0.2,0.6c0,0.2-0.1,0.4-0.3,0.5c-0.2,0.1-0.4,0.2-0.7,0.1c-0.3,0-0.5-0.2-0.6-0.3
	c-0.3-0.3-0.7-0.6-1.1-0.7c-0.4-0.1-0.9-0.2-1.4-0.2c-0.6,0-1.2,0.1-1.6,0.4c-0.4,0.2-0.6,0.6-0.6,1c0,0.3,0.1,0.5,0.2,0.7
	c0.1,0.2,0.4,0.4,0.8,0.6c0.4,0.2,0.9,0.3,1.7,0.4c1,0.2,1.8,0.4,2.4,0.7c0.6,0.3,1,0.7,1.3,1.1c0.3,0.4,0.4,0.9,0.4,1.4
	c0,0.6-0.2,1.2-0.5,1.7c-0.3,0.5-0.8,0.9-1.5,1.1C267.8,85,267,85.1,266.1,85.1z M127.2,117.2c-0.3,0-0.5-0.1-0.7-0.3
	c-0.2-0.2-0.3-0.4-0.3-0.7l0-13.7c0-0.3,0.1-0.5,0.3-0.7c0.2-0.2,0.4-0.3,0.7-0.3c0.3,0,0.5,0.1,0.7,0.3l9.1,12l0-11.4
	c0-0.3,0.1-0.5,0.3-0.7c0.2-0.2,0.4-0.3,0.7-0.3s0.5,0.1,0.7,0.3c0.2,0.2,0.3,0.4,0.3,0.7l0,13.7c0,0.3-0.1,0.5-0.3,0.7
	c-0.2,0.2-0.4,0.3-0.7,0.3c-0.1,0-0.3,0-0.4-0.1c-0.1-0.1-0.2-0.1-0.3-0.2l-9.1-12l0,11.4c0,0.3-0.1,0.5-0.3,0.7
	C127.7,117.1,127.4,117.2,127.2,117.2z M147.3,117.3c-0.9,0-1.8-0.2-2.5-0.6c-0.7-0.4-1.3-1-1.7-1.7c-0.4-0.8-0.6-1.7-0.6-2.8l0-5
	c0-0.3,0.1-0.5,0.3-0.6c0.2-0.2,0.4-0.3,0.7-0.3c0.3,0,0.5,0.1,0.7,0.3c0.2,0.2,0.3,0.4,0.3,0.6l0,5c0,0.8,0.1,1.4,0.4,1.9
	c0.3,0.5,0.7,0.9,1.2,1.1c0.5,0.2,1.1,0.4,1.7,0.4c0.6,0,1.2-0.1,1.6-0.4c0.5-0.2,0.9-0.6,1.1-1c0.3-0.4,0.4-0.9,0.4-1.4l1.2,0
	c0,0.8-0.2,1.6-0.7,2.2c-0.4,0.7-1,1.2-1.7,1.6C148.9,117.1,148.2,117.3,147.3,117.3z M151.7,117.1c-0.3,0-0.5-0.1-0.7-0.3
	c-0.2-0.2-0.3-0.4-0.3-0.7l0-9.1c0-0.3,0.1-0.5,0.3-0.7c0.2-0.2,0.4-0.3,0.7-0.3c0.3,0,0.5,0.1,0.7,0.3c0.2,0.2,0.3,0.4,0.3,0.7
	l0,9.1c0,0.3-0.1,0.5-0.3,0.7C152.2,117.1,152,117.1,151.7,117.1z M170.7,117.2c-0.3,0-0.5-0.1-0.7-0.3c-0.2-0.2-0.3-0.4-0.3-0.7
	l0-5.7c0-0.9-0.2-1.6-0.7-2c-0.4-0.5-1-0.7-1.7-0.7c-0.7,0-1.4,0.3-1.8,0.8c-0.5,0.5-0.7,1.2-0.7,2l-1.6,0c0-0.9,0.2-1.7,0.6-2.3
	c0.4-0.7,0.9-1.2,1.6-1.6s1.4-0.6,2.3-0.6c0.8,0,1.5,0.2,2,0.5c0.6,0.3,1.1,0.9,1.4,1.5c0.3,0.7,0.5,1.4,0.5,2.4l0,5.7
	c0,0.3-0.1,0.5-0.3,0.7C171.2,117.1,171,117.1,170.7,117.2z M157.1,117.2c-0.3,0-0.5-0.1-0.7-0.3c-0.2-0.2-0.3-0.4-0.3-0.7l0-9.1
	c0-0.3,0.1-0.5,0.3-0.7c0.2-0.2,0.4-0.3,0.7-0.3c0.3,0,0.5,0.1,0.7,0.3c0.2,0.2,0.3,0.4,0.3,0.7l0,9.1c0,0.3-0.1,0.5-0.3,0.7
	C157.6,117.1,157.4,117.2,157.1,117.2z M163.9,117.2c-0.3,0-0.5-0.1-0.7-0.3c-0.2-0.2-0.3-0.4-0.3-0.7l0-5.7c0-0.9-0.2-1.6-0.7-2
	c-0.4-0.5-1-0.7-1.7-0.7c-0.7,0-1.4,0.3-1.9,0.8c-0.5,0.5-0.7,1.2-0.7,1.9l-1.2,0c0-0.9,0.2-1.6,0.5-2.3c0.4-0.7,0.8-1.2,1.5-1.6
	c0.6-0.4,1.3-0.6,2.1-0.6c0.8,0,1.5,0.2,2,0.5c0.6,0.3,1.1,0.9,1.4,1.5c0.3,0.7,0.5,1.4,0.5,2.4l0,5.7c0,0.3-0.1,0.5-0.3,0.7
	C164.4,117.1,164.2,117.2,163.9,117.2z M180.1,117.2c-1.1,0-2.1-0.2-2.9-0.7c-0.8-0.5-1.5-1.1-2-2c-0.5-0.8-0.7-1.8-0.7-2.9
	c0-1.1,0.2-2.1,0.7-2.9c0.5-0.8,1.1-1.5,1.9-2c0.8-0.5,1.7-0.7,2.8-0.7c1,0,1.9,0.2,2.7,0.7c0.7,0.5,1.3,1.1,1.7,1.9
	c0.4,0.8,0.6,1.7,0.6,2.8c0,0.2-0.1,0.4-0.2,0.6c-0.1,0.1-0.3,0.2-0.6,0.2l-8.2,0l0-1.5l8.2,0l-0.8,0.6c0-0.7-0.2-1.3-0.4-1.9
	c-0.3-0.6-0.6-1-1.1-1.3c-0.5-0.3-1.1-0.5-1.8-0.5c-0.8,0-1.4,0.2-2,0.5c-0.5,0.3-1,0.8-1.3,1.4c-0.3,0.6-0.4,1.3-0.4,2
	c0,0.8,0.2,1.4,0.5,2c0.3,0.6,0.8,1.1,1.4,1.4c0.6,0.3,1.3,0.5,2.1,0.5c0.4,0,0.9-0.1,1.3-0.2c0.5-0.2,0.8-0.3,1.1-0.6
	c0.2-0.1,0.4-0.2,0.6-0.2c0.2,0,0.4,0,0.6,0.2c0.2,0.2,0.3,0.4,0.3,0.6c0,0.2-0.1,0.4-0.3,0.6c-0.5,0.4-1,0.7-1.7,0.9
	C181.4,117.1,180.7,117.2,180.1,117.2z M179.6,104.5c-0.3,0-0.5-0.1-0.7-0.3c-0.2-0.2-0.3-0.4-0.3-0.7c0-0.3,0.1-0.5,0.2-0.6
	l2.1-2.1c0.2-0.2,0.4-0.3,0.6-0.3c0.3,0,0.5,0.1,0.7,0.3c0.2,0.2,0.3,0.4,0.3,0.7c0,0.1,0,0.2-0.1,0.3c0,0.1-0.1,0.2-0.2,0.3
	l-2.1,2.1C180.1,104.4,179.9,104.5,179.6,104.5z M188.2,110.3c0-0.8,0.2-1.5,0.6-2.2c0.4-0.6,0.9-1.1,1.6-1.5s1.4-0.6,2.2-0.6
	c0.7,0,1.3,0.1,1.6,0.3c0.4,0.2,0.5,0.5,0.4,0.9c0,0.2-0.1,0.3-0.2,0.4c-0.1,0.1-0.3,0.1-0.4,0.1c-0.2,0-0.3,0-0.5,0
	c-0.8-0.1-1.5-0.1-2.2,0.1c-0.6,0.2-1.1,0.5-1.5,0.9s-0.6,0.9-0.6,1.6L188.2,110.3z M188.3,117.1c-0.3,0-0.5-0.1-0.7-0.2
	c-0.2-0.2-0.2-0.4-0.2-0.7l0-9.1c0-0.3,0.1-0.5,0.2-0.7c0.2-0.2,0.4-0.2,0.7-0.2c0.3,0,0.5,0.1,0.7,0.2c0.2,0.1,0.2,0.4,0.2,0.7
	l0,9.1c0,0.3-0.1,0.5-0.2,0.7C188.8,117,188.6,117.1,188.3,117.1z M198.1,117.1c-0.3,0-0.5-0.1-0.7-0.3c-0.2-0.2-0.3-0.4-0.3-0.7
	l0-9.1c0-0.3,0.1-0.5,0.3-0.7c0.2-0.2,0.4-0.3,0.7-0.3c0.3,0,0.5,0.1,0.7,0.3c0.2,0.2,0.3,0.4,0.3,0.7l0,9.1c0,0.3-0.1,0.5-0.3,0.7
	C198.6,117,198.3,117.1,198.1,117.1z M198,104.3c-0.3,0-0.6-0.1-0.9-0.4c-0.2-0.2-0.4-0.5-0.4-0.9c0-0.3,0.1-0.6,0.4-0.9
	c0.3-0.2,0.5-0.4,0.9-0.4c0.3,0,0.6,0.1,0.8,0.4c0.3,0.2,0.4,0.5,0.4,0.9c0,0.3-0.1,0.6-0.4,0.9C198.7,104.1,198.4,104.3,198,104.3z
	 M212.4,121.8c-0.3,0-0.5-0.1-0.7-0.3c-0.2-0.2-0.3-0.4-0.3-0.7l0-5.6c-0.5,0.6-1,1.1-1.7,1.4c-0.7,0.3-1.4,0.5-2.3,0.5
	c-1,0-1.9-0.2-2.7-0.7c-0.8-0.5-1.4-1.1-1.9-2c-0.5-0.8-0.7-1.8-0.7-2.8c0-1.1,0.2-2,0.7-2.8c0.5-0.8,1.1-1.5,2-2
	c0.8-0.5,1.8-0.7,2.8-0.7c1,0,2,0.2,2.8,0.7c0.8,0.5,1.5,1.1,2,2c0.5,0.8,0.7,1.8,0.8,2.8l0,9.3c0,0.3-0.1,0.5-0.3,0.7
	C212.9,121.7,212.7,121.8,212.4,121.8z M207.8,115.5c0.7,0,1.4-0.2,1.9-0.5c0.6-0.3,1-0.8,1.3-1.4c0.3-0.6,0.5-1.3,0.5-2
	c0-0.7-0.2-1.4-0.5-2c-0.3-0.6-0.8-1.1-1.3-1.4c-0.6-0.3-1.2-0.5-1.9-0.5c-0.7,0-1.3,0.2-1.9,0.5c-0.6,0.3-1,0.8-1.4,1.4
	c-0.3,0.6-0.5,1.3-0.5,2c0,0.7,0.2,1.4,0.5,2c0.3,0.6,0.8,1.1,1.4,1.4C206.5,115.4,207.1,115.5,207.8,115.5z M221.6,117.2
	c-0.9,0-1.8-0.2-2.5-0.6c-0.7-0.4-1.3-1-1.7-1.7c-0.4-0.8-0.6-1.7-0.6-2.8l0-5c0-0.3,0.1-0.5,0.3-0.6c0.2-0.2,0.4-0.3,0.7-0.3
	c0.3,0,0.5,0.1,0.7,0.3c0.2,0.2,0.3,0.4,0.3,0.6l0,5c0,0.8,0.1,1.4,0.4,1.9c0.3,0.5,0.7,0.9,1.2,1.1c0.5,0.2,1.1,0.4,1.7,0.4
	c0.6,0,1.2-0.1,1.6-0.4c0.5-0.2,0.9-0.6,1.1-1c0.3-0.4,0.4-0.9,0.4-1.4l1.2,0c0,0.8-0.2,1.6-0.7,2.2c-0.4,0.7-1,1.2-1.7,1.6
	C223.3,117,222.5,117.2,221.6,117.2z M226,117.1c-0.3,0-0.5-0.1-0.7-0.3c-0.2-0.2-0.3-0.4-0.3-0.7l0-9.1c0-0.3,0.1-0.5,0.3-0.7
	c0.2-0.2,0.4-0.3,0.7-0.3c0.3,0,0.5,0.1,0.7,0.3c0.2,0.2,0.3,0.4,0.3,0.7l0,9.1c0,0.3-0.1,0.5-0.3,0.7
	C226.5,117,226.3,117.1,226,117.1z M235.6,117.2c-1.1,0-2.1-0.2-2.9-0.7c-0.8-0.5-1.5-1.1-2-2c-0.5-0.8-0.7-1.8-0.7-2.9
	c0-1.1,0.2-2.1,0.7-2.9c0.5-0.8,1.1-1.5,1.9-2c0.8-0.5,1.7-0.7,2.8-0.7c1,0,1.9,0.2,2.7,0.7c0.7,0.5,1.3,1.1,1.7,1.9
	c0.4,0.8,0.6,1.7,0.6,2.8c0,0.2-0.1,0.4-0.2,0.6c-0.1,0.1-0.3,0.2-0.6,0.2l-8.2,0l0-1.5l8.2,0l-0.8,0.6c0-0.7-0.2-1.3-0.4-1.9
	c-0.3-0.6-0.6-1-1.1-1.3c-0.5-0.3-1.1-0.5-1.8-0.5c-0.8,0-1.4,0.2-2,0.5c-0.5,0.3-1,0.8-1.3,1.4c-0.3,0.6-0.4,1.3-0.4,2
	c0,0.8,0.2,1.4,0.5,2c0.3,0.6,0.8,1.1,1.4,1.4c0.6,0.3,1.3,0.5,2.1,0.5c0.4,0,0.9-0.1,1.3-0.2c0.5-0.2,0.8-0.3,1.1-0.6
	c0.2-0.1,0.4-0.2,0.6-0.2c0.2,0,0.4,0,0.6,0.2c0.2,0.2,0.3,0.4,0.3,0.6c0,0.2-0.1,0.4-0.3,0.6c-0.5,0.4-1,0.7-1.7,0.9
	C236.9,117,236.2,117.2,235.6,117.2z M246.8,117.1c-0.9,0-1.7-0.1-2.5-0.4c-0.8-0.3-1.4-0.7-1.9-1.1c-0.2-0.2-0.2-0.4-0.2-0.7
	c0-0.2,0.1-0.4,0.4-0.6c0.2-0.2,0.5-0.2,0.7-0.2c0.2,0,0.4,0.1,0.6,0.3c0.3,0.3,0.7,0.5,1.2,0.8c0.5,0.2,1.1,0.3,1.7,0.3
	c0.9,0,1.5-0.1,1.9-0.4c0.4-0.3,0.6-0.7,0.7-1.1c0-0.4-0.2-0.8-0.6-1.1c-0.4-0.3-1.1-0.5-2.2-0.7c-1.3-0.3-2.3-0.6-2.9-1.2
	c-0.6-0.5-0.9-1.2-0.9-1.9c0-0.7,0.2-1.2,0.6-1.7c0.4-0.5,0.9-0.8,1.5-1c0.6-0.2,1.3-0.3,2-0.3c0.9,0,1.7,0.1,2.3,0.4
	c0.7,0.3,1.2,0.7,1.6,1.2c0.2,0.2,0.2,0.4,0.2,0.6c0,0.2-0.1,0.4-0.3,0.5c-0.2,0.1-0.4,0.2-0.7,0.1c-0.3,0-0.5-0.2-0.6-0.3
	c-0.3-0.3-0.7-0.6-1.1-0.7c-0.4-0.1-0.9-0.2-1.4-0.2c-0.6,0-1.2,0.1-1.6,0.4c-0.4,0.2-0.6,0.6-0.6,1c0,0.3,0.1,0.5,0.2,0.7
	c0.1,0.2,0.4,0.4,0.8,0.6c0.4,0.2,0.9,0.3,1.7,0.4c1,0.2,1.8,0.4,2.4,0.7c0.6,0.3,1,0.7,1.3,1.1s0.4,0.9,0.4,1.4
	c0,0.6-0.2,1.2-0.5,1.7c-0.3,0.5-0.8,0.9-1.5,1.1C248.5,117,247.7,117.1,246.8,117.1z M127.2,149.2c-0.3,0-0.5-0.1-0.7-0.3
	c-0.2-0.2-0.3-0.4-0.3-0.7l0-13.7c0-0.3,0.1-0.5,0.3-0.7c0.2-0.2,0.4-0.3,0.7-0.3l9.2,0c0.3,0,0.5,0.1,0.7,0.3
	c0.2,0.2,0.3,0.4,0.3,0.6c0,0.2-0.1,0.4-0.3,0.6c-0.2,0.2-0.4,0.2-0.7,0.2l-8.2,0l0,5.1l5.9,0c0.3,0,0.5,0.1,0.7,0.3
	c0.2,0.2,0.3,0.4,0.3,0.6c0,0.3-0.1,0.5-0.3,0.6c-0.2,0.2-0.4,0.2-0.7,0.2l-5.9,0l0,5.2l8.2,0c0.3,0,0.5,0.1,0.7,0.3
	c0.2,0.2,0.3,0.4,0.3,0.6c0,0.3-0.1,0.5-0.3,0.7c-0.2,0.2-0.4,0.2-0.7,0.2L127.2,149.2z M132,131.8c-0.3,0-0.5-0.1-0.7-0.3
	c-0.2-0.2-0.3-0.4-0.3-0.7c0-0.3,0.1-0.5,0.2-0.6l2.1-2.1c0.2-0.2,0.4-0.3,0.6-0.3c0.3,0,0.5,0.1,0.7,0.3c0.2,0.2,0.3,0.4,0.3,0.7
	c0,0.1,0,0.2-0.1,0.3c0,0.1-0.1,0.2-0.2,0.3l-2.1,2.1C132.4,131.8,132.2,131.8,132,131.8z M145,149.2c-1,0-2-0.2-2.8-0.7
	c-0.8-0.5-1.5-1.2-2-2c-0.5-0.8-0.7-1.8-0.7-2.8s0.2-2,0.7-2.8c0.5-0.8,1.1-1.5,1.9-2c0.8-0.5,1.7-0.7,2.7-0.7
	c0.8,0,1.6,0.2,2.3,0.5c0.7,0.3,1.3,0.8,1.7,1.4l0-5.6c0-0.3,0.1-0.5,0.3-0.7c0.2-0.2,0.4-0.3,0.7-0.3c0.3,0,0.5,0.1,0.7,0.3
	c0.2,0.2,0.3,0.4,0.3,0.7l0,9.3c0,1-0.3,2-0.8,2.8c-0.5,0.8-1.1,1.5-2,2C147,149,146,149.2,145,149.2z M145,147.6
	c0.7,0,1.4-0.2,1.9-0.5c0.6-0.3,1-0.8,1.3-1.4c0.3-0.6,0.5-1.3,0.5-2c0-0.7-0.2-1.4-0.5-2c-0.3-0.6-0.8-1-1.3-1.4
	c-0.6-0.3-1.2-0.5-1.9-0.5c-0.7,0-1.3,0.2-1.9,0.5c-0.6,0.3-1,0.8-1.4,1.4c-0.3,0.6-0.5,1.3-0.5,2c0,0.7,0.2,1.4,0.5,2
	c0.3,0.6,0.8,1.1,1.4,1.4C143.7,147.4,144.3,147.6,145,147.6z M158.8,149.2c-0.9,0-1.8-0.2-2.5-0.6c-0.7-0.4-1.3-1-1.7-1.7
	c-0.4-0.8-0.6-1.7-0.6-2.8l0-5c0-0.3,0.1-0.5,0.3-0.6c0.2-0.2,0.4-0.3,0.7-0.3c0.3,0,0.5,0.1,0.7,0.3c0.2,0.2,0.3,0.4,0.3,0.6l0,5
	c0,0.8,0.1,1.4,0.4,1.9c0.3,0.5,0.7,0.9,1.2,1.1c0.5,0.2,1.1,0.4,1.7,0.4c0.6,0,1.2-0.1,1.6-0.4c0.5-0.2,0.9-0.6,1.1-1
	c0.3-0.4,0.4-0.9,0.4-1.4l1.2,0c0,0.8-0.2,1.6-0.7,2.2c-0.4,0.7-1,1.2-1.7,1.6C160.5,149.1,159.7,149.2,158.8,149.2z M163.2,149.1
	c-0.3,0-0.5-0.1-0.7-0.3c-0.2-0.2-0.3-0.4-0.3-0.7l0-9.1c0-0.3,0.1-0.5,0.3-0.7c0.2-0.2,0.4-0.3,0.7-0.3c0.3,0,0.5,0.1,0.7,0.3
	c0.2,0.2,0.3,0.4,0.3,0.7l0,9.1c0,0.3-0.1,0.5-0.3,0.7C163.7,149,163.5,149.1,163.2,149.1z M172.6,149.2c-1.1,0-2-0.2-2.8-0.7
	c-0.8-0.5-1.5-1.2-2-2c-0.5-0.8-0.7-1.8-0.7-2.8c0-1.1,0.2-2,0.7-2.9c0.5-0.8,1.1-1.5,1.9-2c0.8-0.5,1.7-0.7,2.8-0.7
	c0.8,0,1.5,0.2,2.2,0.5c0.7,0.3,1.3,0.8,1.8,1.4c0.2,0.2,0.2,0.4,0.2,0.6c0,0.2-0.2,0.4-0.4,0.6c-0.2,0.1-0.3,0.2-0.6,0.1
	c-0.2,0-0.4-0.2-0.6-0.3c-0.7-0.8-1.6-1.1-2.6-1.1c-0.7,0-1.3,0.2-1.9,0.5c-0.5,0.3-1,0.8-1.3,1.4c-0.3,0.6-0.4,1.3-0.4,2
	c0,0.7,0.2,1.4,0.5,2c0.3,0.6,0.8,1.1,1.3,1.4c0.6,0.3,1.2,0.5,1.9,0.5c0.5,0,0.9-0.1,1.3-0.2c0.4-0.1,0.7-0.3,1-0.6
	c0.2-0.2,0.4-0.2,0.6-0.3c0.2,0,0.4,0,0.6,0.2c0.2,0.2,0.3,0.4,0.3,0.6c0,0.2,0,0.4-0.2,0.6C175.3,148.8,174.1,149.2,172.6,149.2z
	 M184.4,149.2c-1,0-1.9-0.2-2.7-0.7s-1.4-1.1-1.9-2c-0.5-0.8-0.7-1.8-0.7-2.8c0-1.1,0.2-2,0.7-2.8c0.5-0.8,1.2-1.5,2-2
	c0.8-0.5,1.8-0.7,2.8-0.7c1.1,0,2,0.2,2.8,0.7c0.8,0.5,1.5,1.1,2,2c0.5,0.8,0.7,1.8,0.8,2.8l-0.7,0.2c0,1-0.2,1.9-0.7,2.7
	c-0.5,0.8-1.1,1.5-1.8,1.9C186.2,149,185.3,149.2,184.4,149.2z M184.6,147.6c0.7,0,1.4-0.2,1.9-0.5c0.6-0.3,1-0.8,1.3-1.4
	c0.3-0.6,0.5-1.3,0.5-2c0-0.7-0.2-1.4-0.5-2c-0.3-0.6-0.8-1.1-1.3-1.4c-0.6-0.3-1.2-0.5-1.9-0.5c-0.7,0-1.3,0.2-1.9,0.5
	c-0.6,0.3-1,0.8-1.4,1.4c-0.3,0.6-0.5,1.3-0.5,2c0,0.7,0.2,1.4,0.5,2c0.3,0.6,0.8,1.1,1.4,1.4C183.3,147.4,184,147.6,184.6,147.6z
	 M189.2,149.1c-0.3,0-0.5-0.1-0.7-0.3c-0.2-0.2-0.3-0.4-0.3-0.7l0-3.2l0.4-1.9l1.5,0.6l0,4.6c0,0.3-0.1,0.5-0.3,0.7
	C189.7,149,189.5,149.1,189.2,149.1z M197.3,149.1c-0.7,0-1.3-0.2-1.8-0.5c-0.5-0.3-1-0.8-1.3-1.4c-0.3-0.6-0.5-1.3-0.5-2l0-9.6
	c0-0.3,0.1-0.5,0.2-0.7c0.2-0.2,0.4-0.3,0.7-0.3c0.3,0,0.5,0.1,0.7,0.3c0.2,0.2,0.3,0.4,0.3,0.7l0,9.6c0,0.6,0.2,1.1,0.5,1.5
	c0.3,0.4,0.8,0.6,1.3,0.6l0.6,0c0.2,0,0.4,0.1,0.6,0.3c0.2,0.2,0.2,0.4,0.2,0.7c0,0.3-0.1,0.5-0.3,0.7c-0.2,0.2-0.4,0.2-0.7,0.2
	L197.3,149.1z M192.6,140.2c-0.2,0-0.4-0.1-0.6-0.2c-0.2-0.1-0.2-0.3-0.2-0.6c0-0.2,0.1-0.4,0.2-0.6c0.2-0.1,0.4-0.2,0.6-0.2l4.8,0
	c0.2,0,0.4,0.1,0.6,0.2c0.2,0.1,0.2,0.3,0.2,0.6c0,0.2-0.1,0.4-0.2,0.6c-0.2,0.1-0.4,0.2-0.6,0.2L192.6,140.2z M202.4,149.1
	c-0.3,0-0.5-0.1-0.7-0.3c-0.2-0.2-0.3-0.4-0.3-0.7l0-9.1c0-0.3,0.1-0.5,0.3-0.7c0.2-0.2,0.4-0.3,0.7-0.3c0.3,0,0.5,0.1,0.7,0.3
	c0.2,0.2,0.3,0.4,0.3,0.7l0,9.1c0,0.3-0.1,0.5-0.3,0.7C202.9,149,202.7,149.1,202.4,149.1z M202.4,136.3c-0.3,0-0.6-0.1-0.9-0.4
	c-0.2-0.2-0.4-0.5-0.4-0.9c0-0.3,0.1-0.6,0.4-0.9c0.3-0.2,0.5-0.4,0.9-0.4c0.3,0,0.6,0.1,0.8,0.4c0.3,0.2,0.4,0.5,0.4,0.9
	c0,0.3-0.1,0.6-0.4,0.9C203,136.1,202.7,136.3,202.4,136.3z M208.4,149.1c-0.2,0-0.4-0.1-0.6-0.2c-0.2-0.2-0.3-0.4-0.3-0.7l0-10
	c0-0.9,0.2-1.8,0.5-2.5c0.4-0.7,0.9-1.3,1.5-1.6c0.7-0.4,1.4-0.6,2.3-0.6c0.3,0,0.5,0.1,0.7,0.2c0.2,0.2,0.3,0.4,0.3,0.6
	c0,0.2-0.1,0.4-0.3,0.6c-0.2,0.2-0.4,0.2-0.7,0.2c-0.5,0-1,0.1-1.4,0.4c-0.4,0.2-0.7,0.6-0.9,1c-0.2,0.4-0.3,0.9-0.3,1.5l0,10.1
	c0,0.3-0.1,0.5-0.3,0.7C209,149,208.7,149.1,208.4,149.1z M206.5,140.1c-0.3,0-0.5-0.1-0.6-0.2c-0.1-0.1-0.2-0.3-0.2-0.6
	c0-0.2,0.1-0.4,0.2-0.6c0.2-0.1,0.4-0.2,0.6-0.2l5,0c0.3,0,0.5,0.1,0.6,0.2c0.2,0.1,0.2,0.3,0.2,0.6c0,0.2-0.1,0.4-0.2,0.6
	c-0.2,0.1-0.4,0.2-0.6,0.2L206.5,140.1z M218.4,149.2c-0.9,0-1.7-0.1-2.5-0.4c-0.8-0.3-1.4-0.7-1.9-1.1c-0.2-0.2-0.2-0.4-0.2-0.7
	c0-0.2,0.1-0.4,0.4-0.6c0.2-0.2,0.5-0.2,0.7-0.2c0.2,0,0.4,0.1,0.6,0.3c0.3,0.3,0.7,0.5,1.2,0.8c0.5,0.2,1.1,0.3,1.7,0.3
	c0.9,0,1.5-0.1,1.9-0.4c0.4-0.3,0.6-0.7,0.7-1.1c0-0.4-0.2-0.8-0.6-1.1c-0.4-0.3-1.1-0.5-2.2-0.7c-1.3-0.3-2.3-0.6-2.9-1.2
	c-0.6-0.5-0.9-1.2-0.9-1.9c0-0.7,0.2-1.2,0.6-1.7c0.4-0.5,0.9-0.8,1.5-1c0.6-0.2,1.3-0.3,2-0.3c0.9,0,1.7,0.1,2.3,0.4
	c0.7,0.3,1.2,0.7,1.6,1.2c0.2,0.2,0.2,0.4,0.2,0.6c0,0.2-0.1,0.4-0.3,0.5c-0.2,0.1-0.4,0.2-0.7,0.1c-0.3,0-0.5-0.2-0.6-0.3
	c-0.3-0.3-0.7-0.6-1.1-0.7c-0.4-0.1-0.9-0.2-1.4-0.2c-0.6,0-1.2,0.1-1.6,0.4c-0.4,0.2-0.6,0.6-0.6,1c0,0.3,0.1,0.5,0.2,0.7
	c0.1,0.2,0.4,0.4,0.8,0.6c0.4,0.2,0.9,0.3,1.7,0.4c1,0.2,1.8,0.4,2.4,0.7c0.6,0.3,1,0.7,1.3,1.1c0.3,0.4,0.4,0.9,0.4,1.4
	c0,0.6-0.2,1.2-0.5,1.7c-0.3,0.5-0.8,0.9-1.5,1.1C220.1,149,219.3,149.2,218.4,149.2z"/>
</svg>
